VraiDevoir
…
` ###Mettre en valeur la diversit dans les coles dans un secteur au choix (Ville, village, priphrie ou campagne) et  une anne au choix.

df_alldiv <- df %>%
  filter(d_Locale_Txt == "town-distant"|d_Locale_Txt == "town-fringe"|d_Locale_Txt =="town-remote") %>% #Ici on ne veut prendre que les coles de villages.
  select(d_Locale_Txt, Total, SCHOOL_YEAR, diverse) %>% #On ne veut pas toutes les variables.
  rename(id = d_Locale_Txt) %>% #On change le nom de la variable pour quelque chose de plus rapide.
  mutate(
    SCHOOL_YEAR = str_sub(SCHOOL_YEAR, 1, 4),  #str_sub nous permet ici de rduire la valeur "school_year"  1994 au lieu de 1994-1995. On prend les lments de 1  4 de la variable,  savoir : 1, 9, 9 et 4.
    diverse = fct_recode(diverse, "1" = "Diverse", "0" = "Undiverse", "-1" = "Extremely undiverse")) #fct_recode() permet de modifier le nom des paramtres de la variables.

df_alldiv

## # A tibble: 4,804 x 4
##    id           Total SCHOOL_YEAR diverse
##    <chr>        <dbl> <chr>       <fct>  
##  1 town-distant  3118 1994        -1     
##  2 town-distant  5447 2016        1      
##  3 town-distant  2389 2016        1      
##  4 town-distant  3788 1994        1      
##  5 town-distant  3055 2016        1      
##  6 town-remote   2091 1994        0      
##  7 town-remote   1744 2016        1      
##  8 town-fringe   2915 1994        1      
##  9 town-fringe   3464 2016        1      
## 10 town-distant  3539 1994        1      
## #  with 4,794 more rows
…
