anime tidytuesday
…
##  Attaching packages  tidyverse 1.2.1 

##  ggplot2 3.2.1      purrr   0.3.2
##  tibble  2.1.3      dplyr   0.8.3
##  tidyr   1.0.0      stringr 1.4.0
##  readr   1.3.1      forcats 0.4.0

##  Conflicts  tidyverse_conflicts() 
##  dplyr::filter() masks stats::filter()
##  dplyr::lag()    masks stats::lag()

tidy_anime %>%   
  select(animeID, name, popularity, rank, score, favorites, members)

## # A tibble: 77,911 x 7
##    animeID name                    popularity  rank score favorites members
##      <dbl> <chr>                        <dbl> <dbl> <dbl>     <dbl>   <dbl>
##  1       1 Cowboy Bebop                    39    26  8.81     43460  795733
##  2       1 Cowboy Bebop                    39    26  8.81     43460  795733
##  3       1 Cowboy Bebop                    39    26  8.81     43460  795733
##  4       1 Cowboy Bebop                    39    26  8.81     43460  795733
##  5       1 Cowboy Bebop                    39    26  8.81     43460  795733
##  6       1 Cowboy Bebop                    39    26  8.81     43460  795733
##  7       5 Cowboy Bebop: Tengoku         449   164  8.41       776  197791
##  8       5 Cowboy Bebop: Tengoku         449   164  8.41       776  197791
##  9       5 Cowboy Bebop: Tengoku         449   164  8.41       776  197791
## 10       5 Cowboy Bebop: Tengoku         449   164  8.41       776  197791
## #  with 77,901 more rows
…
