travail
…
#1#La note moyenne pour chaque pays

ramen_ratings %>% 
group_by(country) %>% 
summarise(note_moyenne = mean(stars, na.rm = T),
          note_min = min(stars, na.rm = T), 
          note_max = max(stars, na.rm = T) )

## # A tibble: 44 x 4
##    country    note_moyenne note_min note_max
##    <chr>             <dbl>    <dbl>    <dbl>
##  1 Australia          3.26     1        5   
##  2 Bangladesh         3.59     3        4   
##  3 Brazil             4.04     3.5      5   
##  4 Cambodia           4.2      3.5      5   
##  5 Canada             2.26     0        5   
##  6 China              3.47     0        5   
##  7 Colombia           3.29     2.75     3.75
##  8 Dubai              3.58     3.25     3.75
##  9 Estonia            3.5      3.25     3.75
## 10 Fiji               3.88     3.25     4.25
## #  with 34 more rows
…
## # A tibble: 1 x 1
##       n
##   <int>
## 1     2

Il ny a que deux ramen fabriqus au Canada qui ont obtenus cinq toiles.

#3#crer un jeu de donnes qui contient le style et des ramen fabriqus au Japon et au Canada qui ont eu 5 toiles

ramen_ratings %>% 
  select(country, style, stars) %>% 
filter(country == "Japan" |  country == "China")%>%
filter(stars == 5)

## # A tibble: 123 x 3
##    country style stars
##    <chr>   <chr> <dbl>
##  1 Japan   Tray      5
##  2 Japan   Pack      5
##  3 Japan   Cup       5
##  4 Japan   Bowl      5
##  5 Japan   Bowl      5
##  6 Japan   Pack      5
##  7 China   Box       5
##  8 China   Bowl      5
##  9 Japan   Cup       5
## 10 Japan   Pack      5
## #  with 113 more rows
…
