Projet
…
Ici, nous constatons que les publics les plus nombreux sont 13 ans ou plus, 17 ans et plus (violences physique et verbale) et avec de la nudit. Pour finir, nous allons donc regard le genre et la catgorie de public vis des 20 mangas les plus regards pour voir si cela coincide.

df %>%
  select(name, popularity, rating, genre) %>%
  distinct() %>%
  arrange(popularity) %>%
  slice(1:59) 

## # A tibble: 59 x 4
##    name               popularity rating                        genre       
##    <chr>                   <dbl> <chr>                         <chr>       
##  1 Death Note                  1 R - 17+ (violence & profanit Mystery     
##  2 Death Note                  1 R - 17+ (violence & profanit Police      
##  3 Death Note                  1 R - 17+ (violence & profanit Psychologic
##  4 Death Note                  1 R - 17+ (violence & profanit Supernatural
##  5 Death Note                  1 R - 17+ (violence & profanit Thriller    
##  6 Death Note                  1 R - 17+ (violence & profanit Shounen     
##  7 Shingeki no Kyojin          2 R - 17+ (violence & profanit Action      
##  8 Shingeki no Kyojin          2 R - 17+ (violence & profanit Military    
##  9 Shingeki no Kyojin          2 R - 17+ (violence & profanit Mystery     
## 10 Shingeki no Kyojin          2 R - 17+ (violence & profanit Super Power 
## #  with 49 more rows
…
